{
  "key": "${addon.key}",
  "baseUrl": "${addon.base-url}",
  "name": "Hello World",
  "authentication": {
    "type": "jwt"
  },
  "lifecycle": {
    "installed": "/installed",
    "uninstalled": "/uninstalled"
  },
  "scopes": ["READ"],
  "modules": {
    "generalPages": [
      {
        "key": "helloworld-page-jira",
        "location": "system.top.navigation.bar",
        "name": {
          "value": "Hello World"
        },
        "url": "/helloworld"
      }
    ]
  }
}
